…
4. The column `COSTT4_A` is the annual cost of each institution. Which city has the highest average cost? Where is it located?

```r
#Claremont, CA has the highest average cost

colleges %>% 
  select(CITY, COSTT4_A) %>% 
  arrange(desc(COSTT4_A))
```

```
## # A tibble: 341 × 2
##    CITY          COSTT4_A
##    <chr>            <dbl>
##  1 Claremont        69355
##  2 Los Angeles      67225
##  3 Los Angeles      67064
##  4 Los Angeles      67046
##  5 Claremont        66325
##  6 Malibu           66152
##  7 Claremont        66060
##  8 Claremont        65880
##  9 San Francisco    65453
## 10 Claremont        64870
## # … with 331 more rows
```
…
