…
**10. As measured by the data, which snake species has the smallest homerange? Show all of your work, please. Look this species up online and tell me about it!** **Snake is found in taxon column**   

We find that the snake species with the smallest homerange is bitis schneideri. This is commonly known as Namaqua Dwarf adder, and is the smallest viper in the world, and is also venomous.


```r
snakes <- filter(homerange, taxon == "snakes")#new snakes dataframe with snakes

arrange(snakes, mean.hra.m2) #to find smallest homerange
```

```
## # A tibble: 41 × 24
##    taxon  commo…¹ class order family genus species prima…² N     mean.…³ log10…⁴
##    <fct>  <chr>   <chr> <fct> <chr>  <chr> <chr>   <chr>   <chr>   <dbl>   <dbl>
##  1 snakes namaqu… rept… squa… viper… bitis schnei… teleme… 11      17.0    1.23 
##  2 snakes easter… rept… squa… colub… carp… viridis radiot… 10       3.65   0.562
##  3 snakes butler… rept… squa… colub… tham… butleri mark-r… 1       21.5    1.33 
##  4 snakes wester… rept… squa… colub… carp… vermis  radiot… 1        3.46   0.539
##  5 snakes snubno… rept… squa… viper… vipe… latast… teleme… 7       97.4    1.99 
##  6 snakes chines… rept… squa… viper… gloy… shedao… teleme… 16     197.     2.29 
##  7 snakes ringne… rept… squa… colub… diad… puncta… mark-r… <NA>     9      0.954
##  8 snakes cotton… rept… squa… viper… agki… pisciv… teleme… 15     188      2.27 
##  9 snakes redbac… rept… squa… colub… ooca… rufodo… teleme… 21      62.5    1.80 
## 10 snakes gopher… rept… squa… colub… pitu… cateni… teleme… 4      375      2.57 
## # … with 31 more rows, 13 more variables: alternative.mass.reference <chr>,
## #   mean.hra.m2 <dbl>, log10.hra <dbl>, hra.reference <chr>, realm <chr>,
## #   thermoregulation <chr>, locomotion <chr>, trophic.guild <chr>,
## #   dimension <dbl>, preymass <dbl>, log10.preymass <dbl>, PPMR <dbl>,
## #   prey.size.reference <chr>, and abbreviated variable names ¹​common.name,
## #   ²​primarymethod, ³​mean.mass.g, ⁴​log10.mass
```
…
